00110100000001000000000001111011
00110100000001010000000101000001
00100100000001101111110011110111
00000000000001001000000000100001
00000000100001011000100000100110
00111100000100100000000001000000
00010100000000001111111111111111
00010100100000000000000000000001
00110100000001000000000001101111
00100110010100100000000000110000
00000010010000000000000000001000
00110100000001000000000001101111
00111100000100100001000000000001
10101110010001000000000000000000
10001110010100110000000000000000
01110000100001010100000000000010
00000000100001010100100000100100
00110000100010100000000000001111
00110100000010110001001000110100
00111000100011001111111111111111
00000000000001010110100010000000
00000000000001010111000010000010
00010000000001001111111111111111
00010000000000000000000000000001
00110100000001000000000001101111
00011100000000001111111111111111
00011100110000001111111111111110
00011100100000000000000000000001
00110100000001000000000001101111
00001000000100000000000000011111
00110100000001000000000001101111
00110100000111000000000000000000
00111100000111000001000000000001
10101111100001100000000000000000
10001111100011110000000000000000
10000011100011110000000000000000
10000011100011110000000000000001
10000011100011110000000000000010
10100011100000000000000000000001
10001111100011110000000000000000
00000000000000000000000000000000
00001000000100000000000000101000
